<?xml version="1.0" encoding="UTF-8" standalone="no"?>
<!-- Created with Inkscape (http://www.inkscape.org/) -->

<svg
   xmlns:dc="http://purl.org/dc/elements/1.1/"
   xmlns:cc="http://creativecommons.org/ns#"
   xmlns:rdf="http://www.w3.org/1999/02/22-rdf-syntax-ns#"
   xmlns:svg="http://www.w3.org/2000/svg"
   xmlns="http://www.w3.org/2000/svg"
   xmlns:sodipodi="http://sodipodi.sourceforge.net/DTD/sodipodi-0.dtd"
   xmlns:inkscape="http://www.inkscape.org/namespaces/inkscape"
   width="809mm"
   height="500mm"
   viewBox="0 0 809 500"
   version="1.1"
   id="svg843"
   inkscape:version="0.92.4 (5da689c313, 2019-01-14)"
   sodipodi:docname="logo_horizontal.svg"
   inkscape:export-filename="/home/alois/tmp/logo_horizontal_1920.png"
   inkscape:export-xdpi="73.297417"
   inkscape:export-ydpi="73.297417">
  <defs
     id="defs837" />
  <sodipodi:namedview
     id="base"
     pagecolor="#ffffff"
     bordercolor="#666666"
     borderopacity="1.0"
     inkscape:pageopacity="0.0"
     inkscape:pageshadow="2"
     inkscape:zoom="0.35"
     inkscape:cx="1778.3968"
     inkscape:cy="1376.3758"
     inkscape:document-units="mm"
     inkscape:current-layer="layer1"
     showgrid="false"
     inkscape:window-width="3198"
     inkscape:window-height="1758"
     inkscape:window-x="0"
     inkscape:window-y="0"
     inkscape:window-maximized="0" />
  <metadata
     id="metadata840">
    <rdf:RDF>
      <cc:Work
         rdf:about="">
        <dc:format>image/svg+xml</dc:format>
        <dc:type
           rdf:resource="http://purl.org/dc/dcmitype/StillImage" />
        <dc:title></dc:title>
      </cc:Work>
    </rdf:RDF>
  </metadata>
  <g
     inkscape:label="Layer 1"
     inkscape:groupmode="layer"
     id="layer1"
     transform="translate(0,203)">
    <g
       id="g1475"
       transform="matrix(1.976612,0,0,1.976612,1774.184,514.16468)">
      <path
         id="path5811"
         d="m -696.20749,-281.24094 v 9.40704 h 9.10264 v -9.40704 z"
         style="font-style:normal;font-weight:normal;font-size:65.1370697px;line-height:1.25;font-family:sans-serif;letter-spacing:0px;word-spacing:0px;fill:#6c71c4;fill-opacity:1;stroke:none;stroke-width:2.28808188"
         inkscape:connector-curvature="0" />
      <path
         id="path5809"
         d="m -603.78649,-281.24094 v 9.40704 h 9.10264 v -9.40704 z"
         style="font-style:normal;font-weight:normal;font-size:65.1370697px;line-height:1.25;font-family:sans-serif;letter-spacing:0px;word-spacing:0px;fill:#405cc0;fill-opacity:1;stroke:none;stroke-width:2.28808188"
         inkscape:connector-curvature="0" />
      <path
         id="path5807"
         d="m -734.00656,-264.72967 c -4.05702,0 -7.55556,0.65948 -10.49113,1.97809 -2.90259,1.29168 -5.30889,3.28287 -7.22196,5.9739 v -6.86379 h -9.15429 v 62.40621 h 9.15429 v -23.97741 c 1.91307,2.69103 4.31937,4.69496 7.22196,6.01356 2.93557,1.2917 6.43411,1.93843 10.49113,1.93843 6.72873,0 12.18729,-2.17961 16.37625,-6.53908 4.22195,-4.35946 6.33175,-10.09111 6.33175,-17.19541 0,-7.10432 -2.1098,-12.83597 -6.33175,-17.19543 -4.18896,-4.35947 -9.64752,-6.53907 -16.37625,-6.53907 z"
         style="font-style:normal;font-weight:normal;font-size:65.1370697px;line-height:1.25;font-family:sans-serif;letter-spacing:0px;word-spacing:0px;fill:#3c2826;fill-opacity:1;stroke:none;stroke-width:2.28808188"
         inkscape:connector-curvature="0" />
      <path
         id="path5805"
         d="m -641.58555,-264.72967 c -4.05703,0 -7.55556,0.65948 -10.49113,1.97809 -2.9026,1.29168 -5.3089,3.28287 -7.22196,5.9739 v -6.86379 h -9.15429 v 62.40621 h 9.15429 v -23.97741 c 1.91306,2.69103 4.31936,4.69496 7.22196,6.01356 2.93557,1.2917 6.4341,1.93843 10.49113,1.93843 6.72873,0 12.18728,-2.17961 16.37624,-6.53908 4.22196,-4.35946 6.33176,-10.09111 6.33176,-17.19541 0,-7.10432 -2.1098,-12.83597 -6.33176,-17.19543 -4.18896,-4.35947 -9.64751,-6.53907 -16.37624,-6.53907 z"
         style="font-style:normal;font-weight:normal;font-size:65.1370697px;line-height:1.25;font-family:sans-serif;letter-spacing:0px;word-spacing:0px;fill:#3c2826;fill-opacity:1;stroke:none;stroke-width:2.28808188"
         inkscape:connector-curvature="0" />
      <path
         id="path5803"
         d="m -554.21111,-264.72967 c -7.94913,0 -14.18476,2.09815 -18.70356,6.29615 -4.48582,4.198 -6.72673,10.01111 -6.72673,17.43835 0,7.40032 2.24091,13.21342 6.72673,17.43834 4.5188,4.198 10.75443,6.29615 18.70356,6.29615 7.91615,0 14.13312,-2.09815 18.65191,-6.29615 4.51881,-4.22492 6.77838,-10.03802 6.77838,-17.43834 0,-7.42724 -2.25957,-13.24035 -6.77838,-17.43835 -4.51879,-4.198 -10.73576,-6.29615 -18.65191,-6.29615 z"
         style="font-style:normal;font-weight:normal;font-size:65.1370697px;line-height:1.25;font-family:sans-serif;letter-spacing:0px;word-spacing:0px;fill:#3c2826;fill-opacity:1;stroke:none;stroke-width:2.28808188"
         inkscape:connector-curvature="0" />
      <path
         id="path5801"
         d="m -696.20749,-263.64147 v 45.21079 h 9.10264 v -45.21079 z"
         style="font-style:normal;font-weight:normal;font-size:65.1370697px;line-height:1.25;font-family:sans-serif;letter-spacing:0px;word-spacing:0px;fill:#3c2826;fill-opacity:1;stroke:none;stroke-width:2.28808188"
         inkscape:connector-curvature="0" />
      <path
         id="path5799"
         d="m -603.78649,-263.64147 v 45.21079 h 9.10264 v -45.21079 z"
         style="font-style:normal;font-weight:normal;font-size:65.1370697px;line-height:1.25;font-family:sans-serif;letter-spacing:0px;word-spacing:0px;fill:#3c2826;fill-opacity:1;stroke:none;stroke-width:2.28808188"
         inkscape:connector-curvature="0" />
      <path
         id="path5797"
         d="m -736.23361,-258.51532 c 4.81566,0 8.59203,1.56086 11.3297,4.68245 2.77065,3.09468 4.15634,7.37491 4.15634,12.8377 0,5.46278 -1.38569,9.75576 -4.15634,12.87735 -2.73767,3.09468 -6.51404,4.64031 -11.3297,4.64031 -4.81565,0 -8.61069,-1.54563 -11.38134,-4.64031 -2.73767,-3.12159 -4.1047,-7.41457 -4.1047,-12.87735 0,-5.46279 1.36703,-9.74302 4.1047,-12.8377 2.77065,-3.12159 6.56569,-4.68245 11.38134,-4.68245 z"
         style="font-style:normal;font-weight:normal;font-size:65.1370697px;line-height:1.25;font-family:sans-serif;letter-spacing:0px;word-spacing:0px;fill:#3c2826;fill-opacity:1;stroke:none;stroke-width:2.28808188"
         inkscape:connector-curvature="0" />
      <path
         id="path5795"
         d="m -643.8126,-258.51532 c 4.81566,0 8.59202,1.56086 11.32969,4.68245 2.77065,3.09468 4.15635,7.37491 4.15635,12.8377 0,5.46278 -1.3857,9.75576 -4.15635,12.87735 -2.73767,3.09468 -6.51403,4.64031 -11.32969,4.64031 -4.81566,0 -8.61068,-1.54563 -11.38135,-4.64031 -2.73765,-3.12159 -4.10469,-7.41457 -4.10469,-12.87735 0,-5.46279 1.36704,-9.74302 4.10469,-12.8377 2.77067,-3.12159 6.56569,-4.68245 11.38135,-4.68245 z"
         style="font-style:normal;font-weight:normal;font-size:65.1370697px;line-height:1.25;font-family:sans-serif;letter-spacing:0px;word-spacing:0px;fill:#3c2826;fill-opacity:1;stroke:none;stroke-width:2.28808188"
         inkscape:connector-curvature="0" />
      <path
         id="text5079"
         d="m -554.21111,-258.43359 c 4.84864,0 8.69057,1.57362 11.52719,4.72211 2.8366,3.1216 4.25356,7.36109 4.25356,12.71624 0,5.38205 -1.41696,9.6343 -4.25356,12.7559 -2.83662,3.12159 -6.67855,4.68244 -11.52719,4.68244 -4.91461,0 -8.79082,-1.5481 -11.62744,-4.64278 -2.80364,-3.1216 -4.20495,-7.3866 -4.20495,-12.79556 0,-5.40896 1.41694,-9.66122 4.25356,-12.7559 2.83662,-3.12159 6.69721,-4.68245 11.57883,-4.68245 z"
         style="font-style:normal;font-weight:normal;font-size:65.1370697px;line-height:1.25;font-family:sans-serif;letter-spacing:0px;word-spacing:0px;fill:#ff0000;fill-opacity:0;stroke:none;stroke-width:2.28808188"
         inkscape:connector-curvature="0" />
      <g
         style="fill:#ffffff;fill-opacity:1"
         id="g5707"
         transform="matrix(1.0952748,0,0,1.0952748,-790.1118,-269.48775)">
        <path
           style="fill:#ffffff;fill-opacity:1;stroke-width:0.32107022"
           d="m 44.733902,40.798249 c -1.398967,-0.270842 -2.112591,-0.821548 -1.653239,-1.275814 0.16776,-0.165904 1.886519,-0.757793 3.819465,-1.315316 2.565257,-0.7399 4.030537,-1.374479 5.425327,-2.349582 2.40409,-1.680713 3.13479,-2.657668 3.30949,-4.424877 0.17067,-1.726408 -0.34578,-2.769122 -1.78903,-3.612021 -1.07236,-0.626297 -1.18808,-0.628937 -5.18534,-0.118277 -3.253774,0.415677 -4.486337,0.723142 -6.03709,1.505961 -1.071726,0.541004 -2.097192,0.983644 -2.278815,0.983644 -0.574051,0 -0.359409,-1.240288 0.498622,-2.881244 0.986886,-1.887386 0.847523,-2.603253 -0.68255,-3.506018 -1.308612,-0.7721 -1.421407,-1.511151 -0.308051,-2.018429 0.657767,-0.299699 1.305346,-0.211328 3.61204,0.492915 5.625404,1.717462 8.658154,2.060415 11.392054,1.288249 0.77247,-0.21818 1.25296,-2.233078 0.90075,-3.777229 -0.3494,-1.531796 -1.82214,-3.643442 -3.2022,-4.591353 -0.5649,-0.388016 -2.13677,-0.944344 -3.49302,-1.236284 -6.012959,-1.29431 -6.800381,-1.495476 -6.800381,-1.737322 0,-0.677618 4.919339,-1.941288 7.532341,-1.934893 4.94354,0.0121 10.29582,2.520431 13.43822,6.297793 0.94704,1.138409 0.82174,1.539026 -0.80194,2.564013 -1.69187,1.06803 -3.23594,4.256471 -3.41552,7.052882 -0.15845,2.467484 0.58275,4.063428 3.06968,6.609634 1.10853,1.134954 1.70924,1.998363 1.59587,2.29379 -0.46094,1.201187 -7.33543,5.256712 -9.66314,5.700659 -1.80535,0.344319 -7.483222,0.337663 -9.283543,-0.01088 z"
           id="path5699"
           inkscape:connector-curvature="0" />
        <path
           style="fill:#ffffff;fill-opacity:1;stroke-width:0.32107022"
           d="m 62.328825,27.390157 c -1.56249,-0.381829 -1.89822,-1.560837 -0.76669,-2.692371 0.57653,-0.576527 0.96282,-0.657534 2.57828,-0.540682 1.23713,0.08949 2.09283,0.332842 2.45231,0.697424 0.5229,0.530318 0.49661,0.609977 -0.49639,1.503893 -0.5767,0.519153 -1.32341,0.943914 -1.65936,0.943914 -0.33595,0 -0.80324,0.05507 -1.03841,0.122372 -0.23518,0.0673 -0.71656,0.05176 -1.06974,-0.03455 z"
           id="path5695"
           inkscape:connector-curvature="0" />
      </g>
      <g
         style="fill:#ffffff;fill-opacity:1"
         transform="matrix(1.4050876,0,0,1.4050876,-853.65735,-496.97817)"
         id="g5879">
        <path
           style="fill:#ffffff;fill-opacity:1;stroke-width:0.2502763"
           d="m 208.43637,193.67813 c -1.0905,-0.21113 -1.64677,-0.6404 -1.28871,-0.99451 0.13077,-0.12932 1.47056,-0.5907 2.9773,-1.0253 1.99964,-0.57675 3.14184,-1.07141 4.22908,-1.83151 1.87401,-1.31013 2.44359,-2.07167 2.57977,-3.44922 0.13304,-1.34575 -0.26954,-2.15855 -1.39456,-2.81559 -0.83592,-0.48821 -0.92612,-0.49026 -4.04201,-0.0922 -2.53634,0.32402 -3.49712,0.56369 -4.70595,1.17391 -0.83541,0.42171 -1.63477,0.76675 -1.77635,0.76675 -0.44747,0 -0.28016,-0.96681 0.38868,-2.24595 0.76929,-1.47123 0.66065,-2.02925 -0.53205,-2.73296 -1.02007,-0.60186 -1.108,-1.17795 -0.24013,-1.57338 0.51274,-0.23362 1.01753,-0.16473 2.81561,0.38423 4.38504,1.33878 6.74909,1.60611 8.88017,1.0042 0.60216,-0.17007 0.9767,-1.7407 0.70214,-2.94437 -0.27235,-1.19405 -1.42037,-2.84009 -2.49612,-3.57899 -0.44035,-0.30246 -1.66563,-0.73612 -2.72284,-0.96369 -4.68714,-1.00893 -5.30094,-1.16574 -5.30094,-1.35426 0,-0.52821 3.83465,-1.51324 5.87151,-1.50826 3.85352,0.009 8.02565,1.96469 10.47518,4.90917 0.73822,0.8874 0.64055,1.19968 -0.62512,1.99867 -1.31882,0.83253 -2.52243,3.31794 -2.66242,5.49776 -0.12351,1.92342 0.45425,3.16747 2.39284,5.15225 0.86411,0.88471 1.33236,1.55774 1.24399,1.78803 -0.3593,0.93633 -5.71801,4.09764 -7.53249,4.4437 -1.40727,0.2684 -5.83321,0.26321 -7.23658,-0.008 z"
           id="path5697"
           inkscape:connector-curvature="0" />
        <path
           style="fill:#ffffff;fill-opacity:1;stroke-width:0.2502763"
           d="m 221.62257,183.22643 c -1.21797,-0.29763 -1.47968,-1.21668 -0.59764,-2.09872 0.44941,-0.4494 0.75052,-0.51255 2.00978,-0.42146 0.96435,0.0698 1.63138,0.25945 1.91159,0.54364 0.40761,0.41339 0.38711,0.47549 -0.38694,1.1723 -0.44954,0.40468 -1.0316,0.73579 -1.29348,0.73579 -0.26187,0 -0.62613,0.0429 -0.80944,0.0954 -0.18333,0.0525 -0.55857,0.0403 -0.83387,-0.0269 z"
           id="path5691"
           inkscape:connector-curvature="0" />
      </g>
      <text
         xml:space="preserve"
         style="font-style:normal;font-weight:normal;font-size:50.85520935px;line-height:1.25;font-family:sans-serif;letter-spacing:0px;word-spacing:0px;fill:#ffffff;fill-opacity:1;stroke:none;stroke-width:1.27138031"
         x="-664.46796"
         y="-222.55849"
         id="text5859"><tspan
           sodipodi:role="line"
           id="tspan5857"
           x="-664.46796"
           y="-222.55849"
           style="fill:#ffffff;fill-opacity:1;stroke-width:1.27138031">☉</tspan></text>
    </g>
    <g
       id="g818"
       transform="matrix(2.7976019,0,0,2.7976019,41.522309,-144.61806)">
      <path
         inkscape:connector-curvature="0"
         id="path4531"
         d="m 26.128497,94.531372 c 0.0042,-1.084081 1.277299,-5.902472 3.548701,-13.431437 2.470903,-8.190247 2.707599,-10.311641 1.431505,-12.829891 -1.188697,-2.345782 -3.572276,-4.574077 -6.354574,-5.940591 -3.203404,-1.573338 -5.350016,-1.915571 -9.188533,-1.46492 -6.4025583,0.751674 -6.9238713,0.766264 -7.3882133,0.206766 -0.361592,-0.435692 -0.360102,-0.606238 0.0092,-1.053379 0.93092,-1.127115 6.1623203,-2.953652 12.3052183,-4.296352 3.700811,-0.808914 3.916078,-0.798528 4.166951,0.201029 0.259531,1.034055 1.594048,3.211055 2.709554,4.4201 1.351132,1.46443 3.310589,2.681635 5.526356,3.432945 3.921582,1.329709 9.550489,0.504759 13.177636,-1.931261 2.09409,-1.406408 4.407318,-3.819481 5.498212,-5.735532 0.536566,-0.942421 1.16508,-1.786214 1.3967,-1.875095 1.054382,-0.404605 8.798686,1.969384 12.47758,3.824959 2.557605,1.290015 4.346325,2.436759 4.346325,2.786416 0,0.157098 -0.447828,0.441747 -0.995173,0.632553 -0.770899,0.268737 -1.87434,0.203473 -4.896321,-0.289599 -6.064445,-0.989484 -8.39982,-0.820554 -11.960052,0.865138 -4.140172,1.960279 -6.311448,5.487301 -6.289875,10.217282 0.01432,3.136673 0.694866,5.440991 3.142019,10.638592 3.702219,7.863283 4.983491,11.494379 4.143215,11.741789 -0.489927,0.144253 -2.308893,-2.794759 -6.101548,-9.858642 -4.88613,-9.100491 -7.364995,-12.705918 -8.153701,-11.859292 -0.154101,0.16542 -2.388878,4.490731 -4.96617,9.611801 -4.674979,9.289172 -6.427343,12.363217 -7.186608,12.606951 -0.243683,0.07823 -0.400187,-0.165454 -0.398409,-0.62033 z"
         style="fill:#405cc0;fill-opacity:1;stroke-width:0.32107022" />
      <path
         inkscape:connector-curvature="0"
         id="path55"
         d="m 34.473395,55.677485 c -2.994231,-0.855456 -2.372837,-2.375639 1.813501,-4.436566 l 2.008994,-0.989024 2.254192,1.498936 c 3.119503,2.07433 3.329755,3.249963 0.711302,3.977267 -1.458599,0.405144 -5.292839,0.376555 -6.787989,-0.05061 z"
         style="fill:#6c71c4;fill-opacity:1;stroke-width:0.32107022" />
    </g>
  </g>
</svg>
